{
    "packageDirectories": [
        {
            "path": "force-app",
            "default": true,
            "package": "DreamhouseLWC",
            "versionName": "Spring 2022",
            "versionNumber": "1.0"
        }
    ],
    "namespace": "",
    "sourceApiVersion": "54.0",
    "packageAliases": {
        "DreamhouseLWC": "0Ho3h000000PBghCAG",
        "DreamhouseLWC@53.0.0-7": "04t3h0000045tsgAAA",
        "DreamhouseLWC@54.0.0-1": "04t3h000004jtSuAAI"
    }
}
